{
  "items": [
      {
          "key": "$base-accent",
          "value": "rgba(243, 111, 32, 1)"
      },
      {
          "key": "$base-border-color",
          "value": "rgba(238, 238, 238, 1)"
      },
      {
          "key": "$base-success",
          "value": "rgba(87, 163, 50, 1)"
      },
      {
          "key": "$base-border-radius",
          "value": "2px"
      },
      {
          "key": "$base-font-family",
          "value": "\"Open Sans\", \"Noto Kufi Arabic\", \"Helvetica\", \"Arial\", sans-serif"
      },
      {
          "key": "$button-normal-bg",
          "value": "rgba(218, 218, 218, 1)"
      },
      {
          "key": "$texteditor-border-color",
          "value": "rgba(0, 0, 0, 0.22)"
      },
      {
          "key": "$texteditor-hover-border-color",
          "value": "rgba(0, 0, 0, 0.67)"
      },
      {
          "key": "$accordion-icon-active-color",
          "value": "rgba(0, 0, 0, 1)"
      }
  ],
  "baseTheme": "material.orange.light.compact",
  "assetsBasePath": "../../../node_modules/devextreme/dist/css/",
  "outputColorScheme": "bi-base-scheme",
  "makeSwatch": false,
  "version": "21.1.5",
  "widgets": [],
  "removeExternalResources": false
}
